{
    "type": "code",
    "side":  "client",
    "modid": "vsprospectorinfo",
    "name": "vsprospectorinfo",
    "author": "Capsup",
    "description": "Adds info to the tooltip for chunks that are already prospected and renders them on the map",
    "version": "4.1.0",
    "dependencies": {
        "game": "1.15.1"
    }
}
